Resources:
http://en.wikipedia.org/wiki/Behavior-driven_development
http://behaviour-driven.org/

http://www.agilemodeling.com/artifacts/userStory.htm
http://www.agilemodeling.com/artifacts/
-------------------------------------------------------------------------------
                            User Stories
-------------------------------------------------------------------------------