\select@language {portuguese}
<<<<<<< HEAD
\contentsline {chapter}{\IeC {\'I}ndice}{i}{section*.1}
\contentsline {chapter}{Lista de Figuras}{1}{chapter*.2}
\contentsline {chapter}{Lista de Tabelas}{3}{chapter*.3}
\contentsline {chapter}{Lista de C\IeC {\'o}digo}{5}{chapter*.4}
=======
\contentsline {chapter}{\IeC {\'I}ndice}{i}{Doc-Start}
\contentsline {chapter}{Lista de Figuras}{1}{chapter*.1}
\contentsline {chapter}{Lista de Tabelas}{3}{chapter*.2}
\contentsline {chapter}{Lista de C\IeC {\'o}digo}{5}{chapter*.3}
>>>>>>> 9a35cd3c352b059dff233084253a90a4b4962ecb
\contentsline {chapter}{\numberline {1}Introdu\IeC {\c c}\IeC {\~a}o}{7}{chapter.1}
\contentsline {section}{\numberline {1.1}Enquadramento}{7}{section.1.1}
\contentsline {section}{\numberline {1.2}Estrutura do documento}{7}{section.1.2}
\contentsline {chapter}{\numberline {2}Objetivos}{9}{chapter.2}
<<<<<<< HEAD
\contentsline {chapter}{Conclus\IeC {\~a}o}{11}{chapter*.6}
=======
\contentsline {chapter}{Conclus\IeC {\~a}o}{11}{chapter*.5}
>>>>>>> 9a35cd3c352b059dff233084253a90a4b4962ecb
